<svg width="20" height="20" viewBox="0 0 20 20" xmlns="http://www.w3.org/2000/svg">
<path d="M5.45457 8.06345C6.53286 8.06345 7.41013 7.18618 7.41013 6.1079C7.41013 5.02961 6.53286 4.15234 5.45457 4.15234C4.37629 4.15234 3.49902 5.02961 3.49902 6.1079C3.49902 7.18618 4.37629 8.06345 5.45457 8.06345ZM5.45457 5.3272C5.88504 5.3272 6.23527 5.67743 6.23527 6.1079C6.23527 6.53836 5.88504 6.88859 5.45457 6.88859C5.02411 6.88859 4.67388 6.53836 4.67388 6.1079C4.67388 5.67743 5.02411 5.3272 5.45457 5.3272Z" />
<path d="M18.017 13.7628H17.22C17.241 13.6497 17.2886 13.5133 17.3856 13.3629C17.6842 12.9001 17.7481 12.4914 17.8044 12.1307C17.8399 11.9035 17.8735 11.6888 17.9648 11.4412C18.0456 11.2218 18.2011 11.0436 18.3603 10.9078L18.9113 12.266L20 11.8244L18.03 6.95304L17.5514 7.04989C17.4968 7.06094 16.204 7.33789 15.3957 8.83474C14.8057 9.92728 13.4774 10.7756 11.8614 11.1155L11.5393 9.93378L10.9649 10.1019C9.85408 10.427 9.28815 10.714 8.15152 11.4116C7.76311 11.6499 7.24496 11.7962 6.6029 11.8504C6.88858 11.4667 7.66826 10.4364 7.66826 10.4364C8.46732 9.39095 9.5617 7.95919 9.5617 6.10687C9.5617 3.84233 7.71937 2 5.45483 2C3.19029 2 1.34791 3.84233 1.34791 6.10687C1.34791 7.95919 2.44226 9.39095 3.24135 10.4364C3.24135 10.4364 3.96789 11.3959 4.24018 11.7611C3.32101 11.7456 2.60497 11.993 2.06207 12.5113C1.42878 13.1159 1.17098 14.1164 1.37462 15.0316L0 15.9458L1.62522 18.885H2.41359L3.02271 18.1995C3.63748 17.5077 4.52081 17.111 5.44625 17.111C6.2269 17.111 6.98281 17.394 7.57478 17.9078C8.24852 18.4926 8.90288 18.8204 9.51968 18.8821C9.63646 18.8938 9.74737 18.8991 9.85314 18.8991C10.4253 18.8991 10.8463 18.744 11.2247 18.6045C11.6511 18.4474 11.9881 18.3232 12.5554 18.3968C12.795 18.4279 13.0132 18.4427 13.2131 18.4427C14.3341 18.4427 14.8715 17.9752 15.2948 17.2805C15.4411 17.0405 15.6452 16.9019 15.8399 16.8412C16.271 16.7068 16.8175 17.2781 16.8175 17.2781L17.9275 16.7326C18.125 17.2761 18.2253 17.8446 18.2253 18.4249H19.4002C19.4002 17.6408 19.2525 16.8742 18.9614 16.1462L18.017 13.7628ZM5.45479 3.17486C7.07151 3.17486 8.3868 4.49015 8.3868 6.10687C8.3868 7.56162 7.47081 8.76002 6.7348 9.72293C6.7348 9.72293 5.77043 11.0001 5.45475 11.4257C5.13906 11.0001 4.1747 9.72293 4.1747 9.72293C3.43869 8.76002 2.52269 7.56162 2.52269 6.10687C2.52277 4.49015 3.83807 3.17486 5.45479 3.17486V3.17486ZM16.9167 15.9202C16.3857 15.6286 15.9259 15.6272 15.6142 15.6882C15.0835 15.7921 14.6138 16.1404 14.2917 16.669C14.0589 17.051 13.8577 17.381 12.7064 17.2317C11.8524 17.121 11.3032 17.3235 10.8184 17.5021C10.426 17.6468 10.116 17.761 9.63658 17.7131C9.27143 17.6766 8.82479 17.437 8.3449 17.0205C7.53926 16.3212 6.50985 15.936 5.44625 15.936C4.18939 15.936 2.9895 16.4732 2.1523 17.4103L1.55195 16.3246L2.79828 15.4957L2.60771 15.047C2.32661 14.385 2.53476 13.6842 2.87335 13.361C3.26164 12.9902 3.80991 12.8682 4.65103 12.9653C6.47182 13.1753 7.81786 12.9946 8.76601 12.4128C9.61018 11.8948 10.0757 11.6392 10.7243 11.4111L11.0043 12.4387L11.5162 12.3675C13.7552 12.0558 15.5919 10.9438 16.4294 9.39287C16.7134 8.86701 17.0691 8.56569 17.3459 8.39741L17.9035 9.78163C17.5399 10.0244 17.085 10.4304 16.8623 11.0349C16.7307 11.392 16.6844 11.6881 16.6436 11.9492C16.5944 12.2643 16.5619 12.4724 16.3984 12.7258C15.7668 13.7045 16.1292 14.5171 16.1726 14.6066L16.3333 14.9375H17.217L17.4925 15.637L16.9167 15.9202Z" />
</svg>
