<svg width="16" height="16" viewBox="0 0 16 16" xmlns="http://www.w3.org/2000/svg">
<path d="M9.66052 0H1.07339C0.481953 0 0 0.478933 0 1.06667V14.9333C0 15.5221 0.481953 16 1.07339 16H9.66052C10.253 16 10.7339 15.5221 10.7339 14.9333V1.06667C10.7339 0.478933 10.253 0 9.66052 0ZM6.57452 9.6C6.34589 9.6 6.12048 9.55733 5.90365 9.488V10.6667H6.44035C6.7366 10.6667 6.97704 10.9056 6.97704 11.2C6.97704 11.4944 6.7366 11.7333 6.44035 11.7333H4.29357C3.99731 11.7333 3.75687 11.4944 3.75687 11.2C3.75687 10.9056 3.99731 10.6667 4.29357 10.6667H4.83026V9.488C4.61344 9.55733 4.38802 9.6 4.15939 9.6C3.03126 9.6 2.14678 8.76373 2.14678 7.69493C2.14678 6.2944 4.39232 4.77973 5.08036 4.3488C5.25425 4.24107 5.4743 4.23893 5.64819 4.34667C6.1398 4.6464 8.58713 6.22293 8.58713 7.69493C8.58713 8.76373 7.70266 9.6 6.57452 9.6Z" />
<path d="M13.297 1.69367L11.8071 1.29688V11.3406L14.0559 3.00034C14.2094 2.43181 13.8691 1.84621 13.297 1.69367Z" />
<path d="M15.4634 4.77072L14.7936 4.38672L12.9463 11.2369L15.8563 6.22779C16.1525 5.71685 15.9765 5.06512 15.4634 4.77072Z" />
</svg>
