<svg width="16" height="17" viewBox="0 0 16 17" xmlns="http://www.w3.org/2000/svg">
<path fill-rule="evenodd" clip-rule="evenodd" d="M7.99852 11.5269C7.54546 11.5269 7.10662 11.4617 6.69043 11.3398L7.99755 14.2737L9.30439 11.3405C8.88889 11.4619 8.4508 11.5269 7.99852 11.5269Z" />
<path fill-rule="evenodd" clip-rule="evenodd" d="M1.64037 13.3911C1.52319 13.1669 1.46372 12.9076 1.48128 12.6359L1.53212 11.8768L1.04572 11.8359C0.396252 12.9053 0.0174086 14.1466 0.00240863 15.4694C-0.0254038 15.7542 0.19119 16.0015 0.468783 16.0015L5.24837 16.0009C4.55809 15.5406 1.95253 13.988 1.64037 13.3911Z" />
<path fill-rule="evenodd" clip-rule="evenodd" d="M14.4652 11.877L14.5161 12.636C14.5336 12.9078 14.4742 13.1671 14.357 13.3913C14.2406 13.6137 14.0665 13.8012 13.8535 13.9313L10.75 16.0004L15.5304 15.9997C15.7847 16.0023 15.9985 15.7843 15.9973 15.5165C15.9908 14.176 15.6106 12.918 14.9534 11.8359L14.4652 11.877Z" />
<path fill-rule="evenodd" clip-rule="evenodd" d="M7.43252 15.3048L5.39431 10.73C5.10846 10.5389 4.84331 10.3175 4.60334 10.0701C4.05165 9.50135 3.63266 8.79557 3.39944 8.00781L0.21785 10.0025C-0.136087 10.2164 -0.0222437 10.7727 0.38438 10.806L2.53084 10.9895L2.41641 12.6977C2.40531 12.8694 2.49278 13.0245 2.62888 13.1041L6.86649 15.9292C7.06102 16.0595 7.32118 16.0025 7.44752 15.8019C7.52899 15.6726 7.53493 15.5152 7.47671 15.3847L7.43252 15.3048Z" />
<path fill-rule="evenodd" clip-rule="evenodd" d="M13.5834 12.6967L13.4689 10.9885L15.6139 10.7426C16.0205 10.7094 16.1474 10.1518 15.7934 9.93787L12.602 8.00781C12.3687 8.79519 11.9498 9.50058 11.3983 10.0691C11.1576 10.3172 10.8915 10.5393 10.6047 10.7308L8.56724 15.3038L8.52299 15.3838C8.46477 15.5142 8.47071 15.6717 8.55221 15.801C8.67859 16.0015 8.93871 16.0585 9.13327 15.9283L13.3709 13.1031C13.507 13.0235 13.5945 12.8685 13.5834 12.6967Z" />
<path fill-rule="evenodd" clip-rule="evenodd" d="M8.0002 10.5612C10.1309 10.5612 11.8725 8.76578 11.8725 6.56927V5.66016H4.12793V6.56927C4.12793 8.76578 5.86952 10.5612 8.0002 10.5612Z" />
<path fill-rule="evenodd" clip-rule="evenodd" d="M3.18747 4.70531C6.39582 4.70531 9.60414 4.70531 12.8125 4.70531C13.0714 4.70531 13.2812 4.48895 13.2812 4.22208C13.2812 3.95521 13.0714 3.73885 12.8125 3.73885H11.9893C11.7212 2.60116 11.5154 1.20346 10.756 0.420523C10.0775 -0.278939 9.58936 0.0596777 8.98739 0.477319C8.70323 0.674478 8.37607 0.901468 8.00132 0.901468C7.63667 0.901468 7.31898 0.673383 7.04192 0.474452C6.44132 0.0432156 5.95241 -0.307772 5.24597 0.420491C4.46294 1.22771 4.2315 2.59391 3.99866 3.73888H3.1875C2.92863 3.73888 2.71875 3.95524 2.71875 4.22211C2.71872 4.48895 2.92859 4.70531 3.18747 4.70531Z" />
</svg>
