<svg width="15" height="8" viewBox="0 0 15 8" fill="none" xmlns="http://www.w3.org/2000/svg">
<path d="M2.395 8L7.75 3.05533L13.105 8L14.75 6.47773L7.75 -9.53674e-07L0.75 6.47773L2.395 8Z" fill="white"/>
</svg>
