<svg width="63" height="20" viewBox="0 0 63 20" fill="none" xmlns="http://www.w3.org/2000/svg">
<path d="M7.72474 8.11719C8.73598 8.11719 9.4944 8.87561 9.4944 9.83067V9.85876C9.4944 10.8419 8.73598 11.5722 7.72474 11.5722C6.7135 11.5722 5.95508 10.8138 5.95508 9.85876V9.83067C5.95508 8.84752 6.7135 8.11719 7.72474 8.11719Z" fill="#BBBBBB"/>
<path d="M15 6.09223C15 5.48544 15.5279 5 16.1877 5H19.9355C21.3079 5 22.3636 5.36408 23.0762 5.99515C23.6833 6.5534 24 7.3301 24 8.25243V8.2767C24 9.8301 23.1554 10.801 21.8358 11.2864L23.4721 13.1311C23.7097 13.3981 23.868 13.6165 23.868 13.9563C23.868 14.5631 23.3138 14.9515 22.7331 14.9515C22.2053 14.9515 21.8358 14.7087 21.5718 14.3932L19.2757 11.7476H17.3754V13.9078C17.3754 14.5146 16.8475 15 16.1877 15C15.5279 15 15 14.5146 15 13.9078V6.09223ZM19.7771 9.8301C20.9384 9.8301 21.5982 9.27184 21.5982 8.42233V8.39806C21.5982 7.45146 20.8856 6.99029 19.7243 6.99029H17.3754V9.8301H19.7771V9.8301Z" fill="white"/>
<path d="M27.8032 11.1151L24.2926 6.82254C24.133 6.60671 24 6.36691 24 6.05516C24 5.47962 24.5319 5.02398 25.1968 5.02398C25.7287 5.02398 26.0745 5.28777 26.367 5.67146L29 9.10072L31.6862 5.64748C31.9787 5.26379 32.3511 5 32.8298 5C33.5479 5 34 5.45564 34 6.05516C34 6.34293 33.8404 6.60671 33.6809 6.82254L30.1702 11.0911V13.9209C30.1702 14.5204 29.6383 15 28.9734 15C28.3085 15 27.7766 14.5204 27.7766 13.9209V11.1151H27.8032Z" fill="white"/>
<path d="M35 6.09223C35 5.48544 35.4938 5 36.1111 5H39.1235C41.5432 5 43 6.40777 43 8.42233V8.4466C43 10.7524 41.1728 11.9417 38.9259 11.9417H37.2469V13.9078C37.2469 14.5146 36.7531 15 36.1358 15C35.5185 15 35.0247 14.5146 35.0247 13.9078V6.09223H35ZM39 10C40.1111 10 40.7531 9.34466 40.7531 8.49515V8.47087C40.7531 7.5 40.0617 6.96602 38.9506 6.96602H37.2469V10H39Z" fill="white"/>
<path d="M46.313 6.99513H44.0696C43.4696 6.99513 43 6.53285 43 5.99757C43 5.46229 43.4956 5 44.0696 5H50.9304C51.5304 5 52 5.46229 52 5.99757C52 6.53285 51.5043 6.99513 50.9304 6.99513H48.687V13.9051C48.687 14.5134 48.1652 15 47.513 15C46.8609 15 46.3391 14.5134 46.3391 13.9051V6.99513H46.313Z" fill="white"/>
<path d="M52 10.0237V10C52 7.25119 54.3264 5 57.5126 5C60.6989 5 63 7.22749 63 9.9763V10C63 12.7488 60.6736 15 57.4874 15C54.3011 15 52 12.7725 52 10.0237ZM60.5977 10.0237V10C60.5977 8.34123 59.308 6.96682 57.4621 6.96682C55.6161 6.96682 54.3517 8.31754 54.3517 9.9763V10C54.3517 11.6588 55.6414 13.0332 57.4874 13.0332C59.3333 13.0332 60.5977 11.6825 60.5977 10.0237Z" fill="white"/>
<path fill-rule="evenodd" clip-rule="evenodd" d="M3.00586 1.54494C3.00586 0.674157 3.68002 0 4.5508 0C5.42159 0 6.09575 0.674157 6.09575 1.54494V2.79562C6.51137 2.72965 6.94261 2.69531 7.38764 2.69531C7.52157 2.69531 7.65274 2.69752 7.78125 2.70188V1.54494C7.78125 0.674157 8.45541 0 9.32619 0C10.197 0 10.8711 0.674157 10.8711 1.54494V3.38117C11.3229 3.59109 11.7299 3.84295 12.1067 4.1279C12.4438 4.38071 12.7247 4.80205 12.7247 5.36385C12.7247 6.20655 12.0506 6.88071 11.1798 6.88071C10.7584 6.88071 10.4775 6.71217 10.2528 6.57172C9.38202 5.92565 8.48315 5.56048 7.35955 5.56048C4.97191 5.56048 3.25843 7.55486 3.25843 9.97059V9.99868C3.25843 12.4144 4.94382 14.4369 7.35955 14.4369C8.67978 14.4369 9.55056 14.0436 10.4213 13.3133C10.6742 13.1167 10.9831 12.9762 11.3483 12.9762C12.1348 12.9762 12.809 13.6223 12.809 14.4088C12.809 14.8863 12.5562 15.2796 12.2753 15.5324C11.8431 15.9165 11.3815 16.2448 10.8711 16.5106V18.4541C10.8711 19.3249 10.197 19.9991 9.32619 19.9991C8.45541 19.9991 7.78125 19.3249 7.78125 18.4541V17.2893C7.60789 17.2978 7.42996 17.3021 7.24719 17.3021C6.85322 17.3047 6.46883 17.2784 6.09575 17.225V18.4541C6.09575 19.3249 5.42159 19.9991 4.5508 19.9991C3.68002 19.9991 3.00586 19.3249 3.00586 18.4541V16.4317C3.00586 16.2973 3.02192 16.1675 3.05228 16.0443C1.17565 14.7483 0 12.5672 0 10.0549V10.0268C0 7.53039 1.1555 5.32288 3.06372 3.99853C3.02597 3.86233 3.00586 3.7178 3.00586 3.56742V1.54494Z" fill="#BBBBBB"/>
</svg>
