<svg width="28" height="28" viewBox="0 0 28 28" fill="none" xmlns="http://www.w3.org/2000/svg">
<g clip-path="url(#clip0)">
<rect width="28" height="28" fill="#51566C"/>
<path d="M28 0H0V28.0002H28V0Z" fill="#323645"/>
<path d="M14.9557 12.0586C15.9971 12.0586 16.7782 12.8396 16.7782 13.8232V13.8521C16.7782 14.8646 15.9971 15.6167 14.9557 15.6167C13.9143 15.6167 13.1333 14.8356 13.1333 13.8521V13.8232C13.1333 12.8107 13.9143 12.0586 14.9557 12.0586Z" fill="#559ED5"/>
<path fill-rule="evenodd" clip-rule="evenodd" d="M10.0955 5.29024C10.0955 4.39348 10.7898 3.69922 11.6865 3.69922C12.5833 3.69922 13.2776 4.39348 13.2776 5.29024V6.57822C13.7056 6.51028 14.1497 6.47492 14.608 6.47492C14.7459 6.47492 14.881 6.4772 15.0133 6.48168V5.29024C15.0133 4.39348 15.7076 3.69922 16.6043 3.69922C17.5011 3.69922 18.1954 4.39348 18.1954 5.29024V7.18123C18.6606 7.39741 19.0797 7.65678 19.4678 7.95023C19.815 8.21058 20.1042 8.64449 20.1042 9.22305C20.1042 10.0909 19.41 10.7851 18.5132 10.7851C18.0793 10.7851 17.79 10.6116 17.5586 10.4669C16.6618 9.8016 15.7362 9.42554 14.579 9.42554C12.1202 9.42554 10.3556 11.4794 10.3556 13.9672V13.9961C10.3556 16.4839 12.0913 18.5667 14.579 18.5667C15.9386 18.5667 16.8354 18.1617 17.7322 17.4096C17.9925 17.2071 18.3107 17.0624 18.6868 17.0624C19.4967 17.0624 20.191 17.7278 20.191 18.5378C20.191 19.0295 19.9307 19.4345 19.6414 19.6949C19.1964 20.0904 18.7209 20.4285 18.1954 20.7022V22.7037C18.1954 23.6005 17.5011 24.2948 16.6043 24.2948C15.7076 24.2948 15.0133 23.6005 15.0133 22.7037V21.5042C14.8348 21.5129 14.6516 21.5173 14.4633 21.5173C14.0576 21.52 13.6618 21.4929 13.2776 21.438V22.7037C13.2776 23.6005 12.5833 24.2948 11.6865 24.2948C10.7898 24.2948 10.0955 23.6005 10.0955 22.7037V20.6209C10.0955 20.4825 10.1121 20.349 10.1433 20.222C8.21071 18.8874 7 16.6413 7 14.054V14.025C7 11.4542 8.18997 9.18085 10.1551 7.817C10.1162 7.67674 10.0955 7.52791 10.0955 7.37303V5.29024Z" fill="#559ED5"/>
</g>
<defs>
<clipPath id="clip0">
<rect width="28" height="28" fill="white"/>
</clipPath>
</defs>
</svg>
